\relax 
\@writefile{toc}{\contentsline {section}{\numberline {1}Introduction}{2}}
\@writefile{toc}{\contentsline {section}{\numberline {2}Theory}{2}}
\newlabel{eq:1}{{1}{2}}
\newlabel{eq:2}{{2}{2}}
\newlabel{eq:3}{{3}{2}}
\newlabel{eq:4}{{4}{2}}
\newlabel{eq:5}{{5}{3}}
\newlabel{eq:6}{{6}{3}}
\@writefile{toc}{\contentsline {section}{\numberline {3}Results}{3}}
\@writefile{lof}{\contentsline {figure}{\numberline {1}{\ignorespaces Augmented Langrangian evaluated by example problem 1}}{4}}
\newlabel{fig:test1}{{1}{4}}
\@writefile{lof}{\contentsline {figure}{\numberline {2}{\ignorespaces Augmented Langrangian evaluated by example problem 2}}{5}}
\newlabel{fig:test2}{{2}{5}}
\@writefile{lof}{\contentsline {figure}{\numberline {3}{\ignorespaces Augmented Langrangian evaluated by example problem 3}}{6}}
\newlabel{fig:test3}{{3}{6}}
\@writefile{lof}{\contentsline {figure}{\numberline {4}{\ignorespaces Augmented Langrangian evaluated by example problem 4}}{7}}
\newlabel{fig:test4}{{4}{7}}
\@writefile{lof}{\contentsline {figure}{\numberline {5}{\ignorespaces Augmented Langrangian evaluated by example problem 5}}{8}}
\newlabel{fig:test5}{{5}{8}}
\@writefile{lof}{\contentsline {figure}{\numberline {6}{\ignorespaces Augmented Langrangian evaluated by example problem 6}}{9}}
\newlabel{fig:test6}{{6}{9}}
\@writefile{lof}{\contentsline {figure}{\numberline {7}{\ignorespaces Augmented Langrangian evaluated by example problem 12}}{10}}
\newlabel{fig:test12}{{7}{10}}
\@writefile{lof}{\contentsline {figure}{\numberline {8}{\ignorespaces Augmented Langrangian evaluated by example problem 13}}{11}}
\newlabel{fig:test13}{{8}{11}}
\@writefile{lof}{\contentsline {figure}{\numberline {9}{\ignorespaces Augmented Langrangian evaluated by example problem 14}}{12}}
\newlabel{fig:test14}{{9}{12}}
\@writefile{lof}{\contentsline {figure}{\numberline {10}{\ignorespaces Augmented Langrangian evaluated by example problem 15}}{13}}
\newlabel{fig:test15}{{10}{13}}
\@writefile{lof}{\contentsline {figure}{\numberline {11}{\ignorespaces Augmented Langrangian evaluated by example problem 22}}{14}}
\newlabel{fig:test22}{{11}{14}}
\@writefile{lof}{\contentsline {figure}{\numberline {12}{\ignorespaces Augmented Langrangian evaluated by example problem 24}}{15}}
\newlabel{fig:test24}{{12}{15}}
\@writefile{lof}{\contentsline {figure}{\numberline {13}{\ignorespaces Augmented Langrangian evaluated by example problem 24}}{16}}
\newlabel{fig:test26}{{13}{16}}
\@writefile{lof}{\contentsline {figure}{\numberline {14}{\ignorespaces Augmented Langrangian evaluated by example problem 42}}{17}}
\newlabel{fig:test42}{{14}{17}}
\@writefile{toc}{\contentsline {section}{\numberline {4}Conclusion}{18}}
\@writefile{toc}{\contentsline {section}{\numberline {5}Bibliography}{18}}
